{
	"navigationBarTitleText": "购物车",
	"backgroundColorBottom": "#F5F6F7",
	"backgroundColor": "#fff",
	"navigationBarBackgroundColor": "#fff",
	"disableScroll": true,
	"usingComponents": {
		"shopping-cart": "../../components/shoppingCart/shoppingCart"
	}
}
