{
  // 类型：HexColor；默认值：#000000
  // 导航栏背景颜色，如"#000000"
  "navigationBarBackgroundColor": "#FFF",
  // 类型：String；默认值：white
  // 导航栏标题颜色，仅支持 black/white
  "navigationBarTextStyle": "black",
  // 类型：String；默认值：无
  // 导航栏标题文字内容
  "navigationBarTitleText": "会员活动",
  // 类型：HexColor；默认值：#ffffff
  // 窗口的背景色
  "backgroundColor": "#FFF",
  // ios
  "backgroundColorBottom": "#FFF",
  // 类型：String；默认值：dark
  // 下拉背景字体、loading 图的样式，仅支持 dark/light
  "backgroundTextStyle": "light",
  // 是否开启下拉刷新，详见页面相关事件处理函数。类型：Boolean；默认值：false
  "enablePullDownRefresh": false,
  "usingComponents": {
    "nav-tabs": "../../components/navTabs/navTabs",
    "message-tips": "../../components/messageTips/messageTips",
    "active-item": "../../components/activeItem/activeItem",
    "pagination": "../../../components/pagination/pagination"
  }
}