{
  "navigationBarTitleText": "限时折扣",
  "backgroundColorBottom": "#fff",
  "navigationBarTextStyle": "white",
  "backgroundColor": "#fff",
  "navigationBarBackgroundColor": "#FB5B41",
  "usingComponents": {
    "time-counter": "../../../components/timeCounter/timeCounter",
    "money-item": "../../../components/timeItem/moneyItem",
    "empty-page": "../../../components/emptyPage/emptyPage",
    "mp-loading": "/miniprogram_npm/weui-miniprogram/loading/loading"
  }
}