{
  // 类型：HexColor；默认值：#000000
  // 导航栏背景颜色，如"#000000"
  "navigationBarBackgroundColor": "#FFF",
  // 类型：String；默认值：white
  // 导航栏标题颜色，仅支持 black/white
  "navigationBarTextStyle": "black",
  // 类型：String；默认值：dark
  // 下拉背景字体、loading 图的样式，仅支持 dark/light
  "backgroundTextStyle": "light",
  // 是否开启下拉刷新，详见页面相关事件处理函数。类型：Boolean；默认值：false
  "enablePullDownRefresh": false,
  "navigationBarTitleText": "待开票订单",
  "backgroundColorBottom": "#F5F6F7",
  "backgroundColor": "#FFF",
  "usingComponents": {
    "message-tips": "../../../components/messageTips/messageTips",
    "pagination": "../../../components/pagination/pagination"
  }
}