{
	"navigationBarTitleText": "限时秒杀",
	"backgroundColorBottom": "#F5F6F7",
	"backgroundColor": "#fff",
	"navigationBarBackgroundColor": "#fff",
	"usingComponents": {
		"bottom-tips": "../../../components/bottomTips/bottomTips",
		"pagination": "../../../components/pagination/pagination",
		"i-progress": "../../../components/progress/progress",
		"i-drawer": "../../../components/drawer/index",
		"seckill-item": "../../../components/secKillItem/secKillItem"
	}
}
