{
  "navigationBarTitleText": "人气单品",
  "backgroundColorBottom": "#F5F6F7",
  "backgroundColor": "#fff",
  "navigationBarBackgroundColor": "#fff",
  "navigationBarTextStyle": "black",
  "navigationStyle": "default",
  "backgroundTextStyle": "dark",
  "enablePullDownRefresh": false,
  "usingComponents": {
    "bottom-tips": "../../../components/bottomTips/bottomTips",
    "pagination": "../../../components/pagination/pagination",
    "i-drawer": "../../../components/drawer/index",
    "hot-commodity-item": "../../../components/hotCommodityItemNew/hotCommodityItem"
  }
}